Pagina: 1 (DESDE: 1 a 11)
stdClass Object
(
    [contactId] => vAIj2b
    [href] => https://api3.getresponse360.com/v3/contacts/vAIj2b
    [name] => 
    [email] => claudia.aylen19@gmail.com
    [note] => 
    [origin] => api
    [dayOfCycle] => 
    [changedOn] => 2023-02-05T18:56:48+0000
    [timeZone] => 
    [ipAddress] => 
    [activities] => https://api3.getresponse360.com/v3/contacts/vAIj2b/activities
    [campaign] => stdClass Object
        (
            [campaignId] => KDzLd
            [href] => https://api3.getresponse360.com/v3/campaigns/KDzLd
            [name] => cl_high_migrados_final
        )

    [createdOn] => 2023-02-05T18:56:48+0000
    [scoring] => 
    [engagementScore] => 3
)
